<?xml version="1.0" encoding="iso-8859-1"?>
<!-- Generator: Adobe Illustrator 19.0.0, SVG Export Plug-In . SVG Version: 6.00 Build 0)  -->
<svg version="1.1" id="Capa_1" xmlns="http://www.w3.org/2000/svg" x="0px" y="0px"
     viewBox="0 0 448 448" style="enable-background:new 0 0 448 448;" xml:space="preserve">
<path style="fill:#FFE67D;" d="M64,133.648v192c0,17.672,14.328,32,32,32h242.72c8.504,0,16.656,3.376,22.672,9.392l72.952,72.952
	c5.04,5.04,13.656,1.472,13.656-5.656V133.648c0-17.672-14.328-32-32-32H96C78.328,101.648,64,115.976,64,133.648z"/>
<path style="fill:#597BF9;" d="M384,37.648v192c0,17.672-14.328,32-32,32H109.24c-8.472,0-16.6,3.368-22.6,9.36l-72.984,72.984
	C8.616,349.032,0,345.464,0,338.336V37.648c0-17.672,14.328-32,32-32h320C369.672,5.648,384,19.976,384,37.648z"/>
<g>
	<circle style="fill:#FFF0B1;" cx="96" cy="133.648" r="32"/>
	<circle style="fill:#FFF0B1;" cx="192" cy="133.648" r="32"/>
	<circle style="fill:#FFF0B1;" cx="288" cy="133.648" r="32"/>
</g>
<g>
</g>
<g>
</g>
<g>
</g>
<g>
</g>
<g>
</g>
<g>
</g>
<g>
</g>
<g>
</g>
<g>
</g>
<g>
</g>
<g>
</g>
<g>
</g>
<g>
</g>
<g>
</g>
<g>
</g>
</svg>
